moccml/mapping/examples/TADL_EASTuml/fr.inria.aoste.timmo2use.tadl2.examples/BrakeByWireOneWheel/trace/Simulation2013_0923_223712/model_MoCC2013_0923_223712.vcd
$date 
Mon Sep 23 22:37:27 CEST 2013
$end

$version 
VCD Generation 2.1.0
$end

$comment alias mainBlock__ABSSatTrigger_activate "mainBlock::ABSSatTrigger_activate" $end
$comment alias mainBlock__BrakePedalActionning_read "mainBlock::BrakePedalActionning_read" $end
$comment alias mainBlock__BrakePedalActionning_write "mainBlock::BrakePedalActionning_write" $end
$comment alias mainBlock__BrakePedalSensorTrigger_activate "mainBlock::BrakePedalSensorTrigger_activate" $end
$comment alias mainBlock__BrakeTorqueCalculatorTrigger_activate "mainBlock::BrakeTorqueCalculatorTrigger_activate" $end
$comment alias mainBlock__BrakeTrigger_activate "mainBlock::BrakeTrigger_activate" $end
$comment alias mainBlock__FLABSBrakeTorq_write "mainBlock::FLABSBrakeTorq_write" $end
$comment alias mainBlock__FLActuatorSignal_write "mainBlock::FLActuatorSignal_write" $end
$comment alias mainBlock__FLRequestedTorq_read "mainBlock::FLRequestedTorq_read" $end
$comment alias mainBlock__FLRequestedTorq_write "mainBlock::FLRequestedTorq_write" $end
$comment alias mainBlock__FLspeed_rpm_write "mainBlock::FLspeed_rpm_write" $end
$comment alias mainBlock__FLtorqCmd_read "mainBlock::FLtorqCmd_read" $end
$comment alias mainBlock__FLtorqCmd_write "mainBlock::FLtorqCmd_write" $end
$comment alias mainBlock__FLvehicleSpeed_kmph_read "mainBlock::FLvehicleSpeed_kmph_read" $end
$comment alias mainBlock__FLvehicleSpeed_kmph_write "mainBlock::FLvehicleSpeed_kmph_write" $end
$comment alias mainBlock__FLwheelSpeed_rpm_read "mainBlock::FLwheelSpeed_rpm_read" $end
$comment alias mainBlock__FLwheelSpeed_rpm_write "mainBlock::FLwheelSpeed_rpm_write" $end
$comment alias mainBlock__GlobalBrakeControllerTrigger_activate "mainBlock::GlobalBrakeControllerTrigger_activate" $end
$comment alias mainBlock__VehicleSpeed_write "mainBlock::VehicleSpeed_write" $end
$comment alias mainBlock__WheelSpeedSensorTrigger_activate "mainBlock::WheelSpeedSensorTrigger_activate" $end
$comment hide mainBlock__brakePedalSensorAlternates_StartThenStop__AlternatesDef__Alt_c1DelayedByOne $end
$comment alias mainBlock__brakePedalSensorAlternates_StartThenStop__AlternatesDef__Alt_c1DelayedByOne "mainBlock::brakePedalSensorAlternates_StartThenStop::AlternatesDef::Alt_c1DelayedByOne" $end
$comment alias mainBlock__brakePedalSensor_start "mainBlock::brakePedalSensor_start" $end
$comment alias mainBlock__brakePedalSensor_stop "mainBlock::brakePedalSensor_stop" $end
$comment alias mainBlock__brakePedalSensorintermediate_doIt1 "mainBlock::brakePedalSensorintermediate_doIt1" $end
$comment hide mainBlock__brakePedalSensorintermediate_doIt1__ResetableSupDef__ResetableSup_SupUpToReset $end
$comment alias mainBlock__brakePedalSensorintermediate_doIt1__ResetableSupDef__ResetableSup_SupUpToReset "mainBlock::brakePedalSensorintermediate_doIt1::ResetableSupDef::ResetableSup_SupUpToReset" $end
$comment hide mainBlock__brakePedalSensorintermediate_doIt1__ResetableSupDef__ResetableSup_recursiveSupTo $end
$comment alias mainBlock__brakePedalSensorintermediate_doIt1__ResetableSupDef__ResetableSup_recursiveSupTo "mainBlock::brakePedalSensorintermediate_doIt1::ResetableSupDef::ResetableSup_recursiveSupTo" $end
$comment hide mainBlock__brakeTorqueCalculatorAlternates_StartThenStop__AlternatesDef__Alt_c1DelayedByOne $end
$comment alias mainBlock__brakeTorqueCalculatorAlternates_StartThenStop__AlternatesDef__Alt_c1DelayedByOne "mainBlock::brakeTorqueCalculatorAlternates_StartThenStop::AlternatesDef::Alt_c1DelayedByOne" $end
$comment alias mainBlock__brakeTorqueCalculator_start "mainBlock::brakeTorqueCalculator_start" $end
$comment alias mainBlock__brakeTorqueCalculator_stop "mainBlock::brakeTorqueCalculator_stop" $end
$comment alias mainBlock__brakeTorqueCalculatorintermediate_doIt1 "mainBlock::brakeTorqueCalculatorintermediate_doIt1" $end
$comment hide mainBlock__brakeTorqueCalculatorintermediate_doIt1__ResetableSupDef__ResetableSup_SupUpToReset $end
$comment alias mainBlock__brakeTorqueCalculatorintermediate_doIt1__ResetableSupDef__ResetableSup_SupUpToReset "mainBlock::brakeTorqueCalculatorintermediate_doIt1::ResetableSupDef::ResetableSup_SupUpToReset" $end
$comment hide mainBlock__brakeTorqueCalculatorintermediate_doIt1__ResetableSupDef__ResetableSup_recursiveSupTo $end
$comment alias mainBlock__brakeTorqueCalculatorintermediate_doIt1__ResetableSupDef__ResetableSup_recursiveSupTo "mainBlock::brakeTorqueCalculatorintermediate_doIt1::ResetableSupDef::ResetableSup_recursiveSupTo" $end
$comment hide mainBlock__frontLeftABSSatAlternates_StartThenStop__AlternatesDef__Alt_c1DelayedByOne $end
$comment alias mainBlock__frontLeftABSSatAlternates_StartThenStop__AlternatesDef__Alt_c1DelayedByOne "mainBlock::frontLeftABSSatAlternates_StartThenStop::AlternatesDef::Alt_c1DelayedByOne" $end
$comment alias mainBlock__frontLeftABSSat_start "mainBlock::frontLeftABSSat_start" $end
$comment alias mainBlock__frontLeftABSSat_stop "mainBlock::frontLeftABSSat_stop" $end
$comment alias mainBlock__frontLeftABSSatintermediate_doIt1 "mainBlock::frontLeftABSSatintermediate_doIt1" $end
$comment hide mainBlock__frontLeftABSSatintermediate_doIt1__ResetableSupDef__ResetableSup_SupUpToReset $end
$comment alias mainBlock__frontLeftABSSatintermediate_doIt1__ResetableSupDef__ResetableSup_SupUpToReset "mainBlock::frontLeftABSSatintermediate_doIt1::ResetableSupDef::ResetableSup_SupUpToReset" $end
$comment hide mainBlock__frontLeftABSSatintermediate_doIt1__ResetableSupDef__ResetableSup_recursiveSupTo $end
$comment alias mainBlock__frontLeftABSSatintermediate_doIt1__ResetableSupDef__ResetableSup_recursiveSupTo "mainBlock::frontLeftABSSatintermediate_doIt1::ResetableSupDef::ResetableSup_recursiveSupTo" $end
$comment alias mainBlock__frontLeftABSSatintermediate_doIt3 "mainBlock::frontLeftABSSatintermediate_doIt3" $end
$comment hide mainBlock__frontLeftABSSatintermediate_doIt3__ResetableSupDef__ResetableSup_SupUpToReset $end
$comment alias mainBlock__frontLeftABSSatintermediate_doIt3__ResetableSupDef__ResetableSup_SupUpToReset "mainBlock::frontLeftABSSatintermediate_doIt3::ResetableSupDef::ResetableSup_SupUpToReset" $end
$comment hide mainBlock__frontLeftABSSatintermediate_doIt3__ResetableSupDef__ResetableSup_recursiveSupTo $end
$comment alias mainBlock__frontLeftABSSatintermediate_doIt3__ResetableSupDef__ResetableSup_recursiveSupTo "mainBlock::frontLeftABSSatintermediate_doIt3::ResetableSupDef::ResetableSup_recursiveSupTo" $end
$comment hide mainBlock__frontLeftBrakeAlternates_StartThenStop__AlternatesDef__Alt_c1DelayedByOne $end
$comment alias mainBlock__frontLeftBrakeAlternates_StartThenStop__AlternatesDef__Alt_c1DelayedByOne "mainBlock::frontLeftBrakeAlternates_StartThenStop::AlternatesDef::Alt_c1DelayedByOne" $end
$comment alias mainBlock__frontLeftBrake_start "mainBlock::frontLeftBrake_start" $end
$comment alias mainBlock__frontLeftBrake_stop "mainBlock::frontLeftBrake_stop" $end
$comment alias mainBlock__frontLeftBrakeintermediate_doIt1 "mainBlock::frontLeftBrakeintermediate_doIt1" $end
$comment hide mainBlock__frontLeftBrakeintermediate_doIt1__ResetableSupDef__ResetableSup_SupUpToReset $end
$comment alias mainBlock__frontLeftBrakeintermediate_doIt1__ResetableSupDef__ResetableSup_SupUpToReset "mainBlock::frontLeftBrakeintermediate_doIt1::ResetableSupDef::ResetableSup_SupUpToReset" $end
$comment hide mainBlock__frontLeftBrakeintermediate_doIt1__ResetableSupDef__ResetableSup_recursiveSupTo $end
$comment alias mainBlock__frontLeftBrakeintermediate_doIt1__ResetableSupDef__ResetableSup_recursiveSupTo "mainBlock::frontLeftBrakeintermediate_doIt1::ResetableSupDef::ResetableSup_recursiveSupTo" $end
$comment hide mainBlock__frontLeftWheelSpeedSensorAlternates_StartThenStop__AlternatesDef__Alt_c1DelayedByOne $end
$comment alias mainBlock__frontLeftWheelSpeedSensorAlternates_StartThenStop__AlternatesDef__Alt_c1DelayedByOne "mainBlock::frontLeftWheelSpeedSensorAlternates_StartThenStop::AlternatesDef::Alt_c1DelayedByOne" $end
$comment alias mainBlock__frontLeftWheelSpeedSensor_start "mainBlock::frontLeftWheelSpeedSensor_start" $end
$comment alias mainBlock__frontLeftWheelSpeedSensor_stop "mainBlock::frontLeftWheelSpeedSensor_stop" $end
$comment alias mainBlock__frontLeftWheel_rpm_read "mainBlock::frontLeftWheel_rpm_read" $end
$comment alias mainBlock__frontLeftWheel_rpm_write "mainBlock::frontLeftWheel_rpm_write" $end
$comment hide mainBlock__globalBrakeControllerAlternates_StartThenStop__AlternatesDef__Alt_c1DelayedByOne $end
$comment alias mainBlock__globalBrakeControllerAlternates_StartThenStop__AlternatesDef__Alt_c1DelayedByOne "mainBlock::globalBrakeControllerAlternates_StartThenStop::AlternatesDef::Alt_c1DelayedByOne" $end
$comment alias mainBlock__globalBrakeController_start "mainBlock::globalBrakeController_start" $end
$comment alias mainBlock__globalBrakeController_stop "mainBlock::globalBrakeController_stop" $end
$comment alias mainBlock__globalBrakeControllerintermediate_doIt1 "mainBlock::globalBrakeControllerintermediate_doIt1" $end
$comment hide mainBlock__globalBrakeControllerintermediate_doIt1__ResetableSupDef__ResetableSup_SupUpToReset $end
$comment alias mainBlock__globalBrakeControllerintermediate_doIt1__ResetableSupDef__ResetableSup_SupUpToReset "mainBlock::globalBrakeControllerintermediate_doIt1::ResetableSupDef::ResetableSup_SupUpToReset" $end
$comment hide mainBlock__globalBrakeControllerintermediate_doIt1__ResetableSupDef__ResetableSup_recursiveSupTo $end
$comment alias mainBlock__globalBrakeControllerintermediate_doIt1__ResetableSupDef__ResetableSup_recursiveSupTo "mainBlock::globalBrakeControllerintermediate_doIt1::ResetableSupDef::ResetableSup_recursiveSupTo" $end
$comment alias mainBlock__globalTorque_read "mainBlock::globalTorque_read" $end
$comment alias mainBlock__globalTorque_write "mainBlock::globalTorque_write" $end
$comment alias mainBlock__pedalPositionOut_write "mainBlock::pedalPositionOut_write" $end
$comment alias mainBlock__pedalPosition_read "mainBlock::pedalPosition_read" $end
$comment alias mainBlock__pedalPosition_write "mainBlock::pedalPosition_write" $end
$comment alias mainBlock__requestedTorq_write "mainBlock::requestedTorq_write" $end
$comment alias mainBlock__torqFrontLeftWheel_write "mainBlock::torqFrontLeftWheel_write" $end
$comment scale 0.1  $end
$comment relation   "model_MoCC2013_0923_223712.ccslrelationmodel" $end
$comment xmi  mainBlock__WheelSpeedSensorTrigger_activate "model_MoCC2013_0923_223712.trace#//@references.0" $end
$comment xmi  mainBlock__frontLeftABSSat_stop "model_MoCC2013_0923_223712.trace#//@references.1" $end
$comment xmi  mainBlock__FLRequestedTorq_write "model_MoCC2013_0923_223712.trace#//@references.2" $end
$comment xmi  mainBlock__globalTorque_write "model_MoCC2013_0923_223712.trace#//@references.3" $end
$comment xmi  mainBlock__brakeTorqueCalculator_stop "model_MoCC2013_0923_223712.trace#//@references.4" $end
$comment xmi  mainBlock__FLtorqCmd_write "model_MoCC2013_0923_223712.trace#//@references.5" $end
$comment xmi  mainBlock__frontLeftBrake_stop "model_MoCC2013_0923_223712.trace#//@references.6" $end
$comment xmi  mainBlock__frontLeftWheel_rpm_write "model_MoCC2013_0923_223712.trace#//@references.7" $end
$comment xmi  mainBlock__BrakePedalSensorTrigger_activate "model_MoCC2013_0923_223712.trace#//@references.8" $end
$comment xmi  mainBlock__pedalPosition_write "model_MoCC2013_0923_223712.trace#//@references.9" $end
$comment xmi  mainBlock__FLActuatorSignal_write "model_MoCC2013_0923_223712.trace#//@references.10" $end
$comment xmi  mainBlock__FLRequestedTorq_read "model_MoCC2013_0923_223712.trace#//@references.11" $end
$comment xmi  mainBlock__FLABSBrakeTorq_write "model_MoCC2013_0923_223712.trace#//@references.12" $end
$comment xmi  mainBlock__BrakeTorqueCalculatorTrigger_activate "model_MoCC2013_0923_223712.trace#//@references.13" $end
$comment xmi  mainBlock__frontLeftABSSat_start "model_MoCC2013_0923_223712.trace#//@references.14" $end
$comment xmi  mainBlock__FLwheelSpeed_rpm_read "model_MoCC2013_0923_223712.trace#//@references.15" $end
$comment xmi  mainBlock__FLwheelSpeed_rpm_write "model_MoCC2013_0923_223712.trace#//@references.16" $end
$comment xmi  mainBlock__torqFrontLeftWheel_write "model_MoCC2013_0923_223712.trace#//@references.17" $end
$comment xmi  mainBlock__pedalPositionOut_write "model_MoCC2013_0923_223712.trace#//@references.18" $end
$comment xmi  mainBlock__frontLeftBrake_start "model_MoCC2013_0923_223712.trace#//@references.19" $end
$comment xmi  mainBlock__globalBrakeController_start "model_MoCC2013_0923_223712.trace#//@references.20" $end
$comment xmi  mainBlock__BrakePedalActionning_read "model_MoCC2013_0923_223712.trace#//@references.21" $end
$comment xmi  mainBlock__pedalPosition_read "model_MoCC2013_0923_223712.trace#//@references.22" $end
$comment xmi  mainBlock__FLvehicleSpeed_kmph_read "model_MoCC2013_0923_223712.trace#//@references.23" $end
$comment xmi  mainBlock__ABSSatTrigger_activate "model_MoCC2013_0923_223712.trace#//@references.24" $end
$comment xmi  mainBlock__BrakePedalActionning_write "model_MoCC2013_0923_223712.trace#//@references.25" $end
$comment xmi  mainBlock__FLtorqCmd_read "model_MoCC2013_0923_223712.trace#//@references.26" $end
$comment xmi  mainBlock__BrakeTrigger_activate "model_MoCC2013_0923_223712.trace#//@references.27" $end
$comment xmi  mainBlock__globalBrakeController_stop "model_MoCC2013_0923_223712.trace#//@references.28" $end
$comment xmi  mainBlock__brakePedalSensor_start "model_MoCC2013_0923_223712.trace#//@references.29" $end
$comment xmi  mainBlock__frontLeftWheelSpeedSensor_start "model_MoCC2013_0923_223712.trace#//@references.30" $end
$comment xmi  mainBlock__requestedTorq_write "model_MoCC2013_0923_223712.trace#//@references.31" $end
$comment xmi  mainBlock__frontLeftWheelSpeedSensor_stop "model_MoCC2013_0923_223712.trace#//@references.32" $end
$comment xmi  mainBlock__brakeTorqueCalculator_start "model_MoCC2013_0923_223712.trace#//@references.33" $end
$comment xmi  mainBlock__FLvehicleSpeed_kmph_write "model_MoCC2013_0923_223712.trace#//@references.34" $end
$comment xmi  mainBlock__frontLeftWheel_rpm_read "model_MoCC2013_0923_223712.trace#//@references.35" $end
$comment xmi  mainBlock__GlobalBrakeControllerTrigger_activate "model_MoCC2013_0923_223712.trace#//@references.36" $end
$comment xmi  mainBlock__globalTorque_read "model_MoCC2013_0923_223712.trace#//@references.37" $end
$comment xmi  mainBlock__FLspeed_rpm_write "model_MoCC2013_0923_223712.trace#//@references.38" $end
$comment xmi  mainBlock__brakePedalSensor_stop "model_MoCC2013_0923_223712.trace#//@references.39" $end
$comment xmi  mainBlock__VehicleSpeed_write "model_MoCC2013_0923_223712.trace#//@references.40" $end
$comment xmi  mainBlock__frontLeftBrakeintermediate_doIt1__ResetableSupDef__ResetableSup_recursiveSupTo "model_MoCC2013_0923_223712.trace#//@references.42" $end
$comment xmi  mainBlock__globalBrakeControllerintermediate_doIt1 "model_MoCC2013_0923_223712.trace#//@references.43" $end
$comment xmi  mainBlock__globalBrakeControllerintermediate_doIt1__ResetableSupDef__ResetableSup_recursiveSupTo "model_MoCC2013_0923_223712.trace#//@references.44" $end
$comment xmi  mainBlock__brakeTorqueCalculatorintermediate_doIt1 "model_MoCC2013_0923_223712.trace#//@references.45" $end
$comment xmi  mainBlock__frontLeftBrakeAlternates_StartThenStop__AlternatesDef__Alt_c1DelayedByOne "model_MoCC2013_0923_223712.trace#//@references.46" $end
$comment xmi  mainBlock__globalBrakeControllerAlternates_StartThenStop__AlternatesDef__Alt_c1DelayedByOne "model_MoCC2013_0923_223712.trace#//@references.47" $end
$comment xmi  mainBlock__frontLeftBrakeintermediate_doIt1__ResetableSupDef__ResetableSup_SupUpToReset "model_MoCC2013_0923_223712.trace#//@references.51" $end
$comment xmi  mainBlock__brakeTorqueCalculatorAlternates_StartThenStop__AlternatesDef__Alt_c1DelayedByOne "model_MoCC2013_0923_223712.trace#//@references.52" $end
$comment xmi  mainBlock__frontLeftABSSatintermediate_doIt1 "model_MoCC2013_0923_223712.trace#//@references.53" $end
$comment xmi  mainBlock__brakePedalSensorAlternates_StartThenStop__AlternatesDef__Alt_c1DelayedByOne "model_MoCC2013_0923_223712.trace#//@references.54" $end
$comment xmi  mainBlock__frontLeftABSSatintermediate_doIt3__ResetableSupDef__ResetableSup_SupUpToReset "model_MoCC2013_0923_223712.trace#//@references.55" $end
$comment xmi  mainBlock__frontLeftBrakeintermediate_doIt1 "model_MoCC2013_0923_223712.trace#//@references.56" $end
$comment xmi  mainBlock__brakeTorqueCalculatorintermediate_doIt1__ResetableSupDef__ResetableSup_recursiveSupTo "model_MoCC2013_0923_223712.trace#//@references.57" $end
$comment xmi  mainBlock__brakeTorqueCalculatorintermediate_doIt1__ResetableSupDef__ResetableSup_SupUpToReset "model_MoCC2013_0923_223712.trace#//@references.59" $end
$comment xmi  mainBlock__globalBrakeControllerintermediate_doIt1__ResetableSupDef__ResetableSup_SupUpToReset "model_MoCC2013_0923_223712.trace#//@references.62" $end
$comment xmi  mainBlock__brakePedalSensorintermediate_doIt1__ResetableSupDef__ResetableSup_recursiveSupTo "model_MoCC2013_0923_223712.trace#//@references.63" $end
$comment xmi  mainBlock__frontLeftABSSatintermediate_doIt1__ResetableSupDef__ResetableSup_recursiveSupTo "model_MoCC2013_0923_223712.trace#//@references.64" $end
$comment xmi  mainBlock__brakePedalSensorintermediate_doIt1 "model_MoCC2013_0923_223712.trace#//@references.65" $end
$comment xmi  mainBlock__frontLeftABSSatintermediate_doIt3__ResetableSupDef__ResetableSup_recursiveSupTo "model_MoCC2013_0923_223712.trace#//@references.68" $end
$comment xmi  mainBlock__frontLeftABSSatintermediate_doIt1__ResetableSupDef__ResetableSup_SupUpToReset "model_MoCC2013_0923_223712.trace#//@references.70" $end
$comment xmi  mainBlock__brakePedalSensorintermediate_doIt1__ResetableSupDef__ResetableSup_SupUpToReset "model_MoCC2013_0923_223712.trace#//@references.72" $end
$comment xmi  mainBlock__frontLeftABSSatintermediate_doIt3 "model_MoCC2013_0923_223712.trace#//@references.73" $end
$comment xmi  mainBlock__frontLeftABSSatAlternates_StartThenStop__AlternatesDef__Alt_c1DelayedByOne "model_MoCC2013_0923_223712.trace#//@references.75" $end
$comment xmi  mainBlock__frontLeftWheelSpeedSensorAlternates_StartThenStop__AlternatesDef__Alt_c1DelayedByOne "model_MoCC2013_0923_223712.trace#//@references.76" $end
$scope module top $end
$var event 1 !1 mainBlock__ABSSatTrigger_activate $end
$var event 1 !2 mainBlock__BrakePedalActionning_read $end
$var event 1 !3 mainBlock__BrakePedalActionning_write $end
$var event 1 !4 mainBlock__BrakePedalSensorTrigger_activate $end
$var event 1 !5 mainBlock__BrakeTorqueCalculatorTrigger_activate $end
$var event 1 !6 mainBlock__BrakeTrigger_activate $end
$var event 1 !7 mainBlock__FLABSBrakeTorq_write $end
$var event 1 !8 mainBlock__FLActuatorSignal_write $end
$var event 1 !9 mainBlock__FLRequestedTorq_read $end
$var event 1 !10 mainBlock__FLRequestedTorq_write $end
$var event 1 !11 mainBlock__FLspeed_rpm_write $end
$var event 1 !12 mainBlock__FLtorqCmd_read $end
$var event 1 !13 mainBlock__FLtorqCmd_write $end
$var event 1 !14 mainBlock__FLvehicleSpeed_kmph_read $end
$var event 1 !15 mainBlock__FLvehicleSpeed_kmph_write $end
$var event 1 !16 mainBlock__FLwheelSpeed_rpm_read $end
$var event 1 !17 mainBlock__FLwheelSpeed_rpm_write $end
$var event 1 !18 mainBlock__GlobalBrakeControllerTrigger_activate $end
$var event 1 !19 mainBlock__VehicleSpeed_write $end
$var event 1 !20 mainBlock__WheelSpeedSensorTrigger_activate $end
$var event 1 !21 mainBlock__brakePedalSensorAlternates_StartThenStop__AlternatesDef__Alt_c1DelayedByOne $end
$var event 1 !22 mainBlock__brakePedalSensor_start $end
$var event 1 !23 mainBlock__brakePedalSensor_stop $end
$var event 1 !24 mainBlock__brakePedalSensorintermediate_doIt1 $end
$var event 1 !25 mainBlock__brakePedalSensorintermediate_doIt1__ResetableSupDef__ResetableSup_SupUpToReset $end
$var event 1 !26 mainBlock__brakePedalSensorintermediate_doIt1__ResetableSupDef__ResetableSup_recursiveSupTo $end
$var event 1 !27 mainBlock__brakeTorqueCalculatorAlternates_StartThenStop__AlternatesDef__Alt_c1DelayedByOne $end
$var event 1 !28 mainBlock__brakeTorqueCalculator_start $end
$var event 1 !29 mainBlock__brakeTorqueCalculator_stop $end
$var event 1 !30 mainBlock__brakeTorqueCalculatorintermediate_doIt1 $end
$var event 1 !31 mainBlock__brakeTorqueCalculatorintermediate_doIt1__ResetableSupDef__ResetableSup_SupUpToReset $end
$var event 1 !32 mainBlock__brakeTorqueCalculatorintermediate_doIt1__ResetableSupDef__ResetableSup_recursiveSupTo $end
$var event 1 !33 mainBlock__frontLeftABSSatAlternates_StartThenStop__AlternatesDef__Alt_c1DelayedByOne $end
$var event 1 !34 mainBlock__frontLeftABSSat_start $end
$var event 1 !35 mainBlock__frontLeftABSSat_stop $end
$var event 1 !36 mainBlock__frontLeftABSSatintermediate_doIt1 $end
$var event 1 !37 mainBlock__frontLeftABSSatintermediate_doIt1__ResetableSupDef__ResetableSup_SupUpToReset $end
$var event 1 !38 mainBlock__frontLeftABSSatintermediate_doIt1__ResetableSupDef__ResetableSup_recursiveSupTo $end
$var event 1 !39 mainBlock__frontLeftABSSatintermediate_doIt3 $end
$var event 1 !40 mainBlock__frontLeftABSSatintermediate_doIt3__ResetableSupDef__ResetableSup_SupUpToReset $end
$var event 1 !41 mainBlock__frontLeftABSSatintermediate_doIt3__ResetableSupDef__ResetableSup_recursiveSupTo $end
$var event 1 !42 mainBlock__frontLeftBrakeAlternates_StartThenStop__AlternatesDef__Alt_c1DelayedByOne $end
$var event 1 !43 mainBlock__frontLeftBrake_start $end
$var event 1 !44 mainBlock__frontLeftBrake_stop $end
$var event 1 !45 mainBlock__frontLeftBrakeintermediate_doIt1 $end
$var event 1 !46 mainBlock__frontLeftBrakeintermediate_doIt1__ResetableSupDef__ResetableSup_SupUpToReset $end
$var event 1 !47 mainBlock__frontLeftBrakeintermediate_doIt1__ResetableSupDef__ResetableSup_recursiveSupTo $end
$var event 1 !48 mainBlock__frontLeftWheelSpeedSensorAlternates_StartThenStop__AlternatesDef__Alt_c1DelayedByOne $end
$var event 1 !49 mainBlock__frontLeftWheelSpeedSensor_start $end
$var event 1 !50 mainBlock__frontLeftWheelSpeedSensor_stop $end
$var event 1 !51 mainBlock__frontLeftWheel_rpm_read $end
$var event 1 !52 mainBlock__frontLeftWheel_rpm_write $end
$var event 1 !53 mainBlock__globalBrakeControllerAlternates_StartThenStop__AlternatesDef__Alt_c1DelayedByOne $end
$var event 1 !54 mainBlock__globalBrakeController_start $end
$var event 1 !55 mainBlock__globalBrakeController_stop $end
$var event 1 !56 mainBlock__globalBrakeControllerintermediate_doIt1 $end
$var event 1 !57 mainBlock__globalBrakeControllerintermediate_doIt1__ResetableSupDef__ResetableSup_SupUpToReset $end
$var event 1 !58 mainBlock__globalBrakeControllerintermediate_doIt1__ResetableSupDef__ResetableSup_recursiveSupTo $end
$var event 1 !59 mainBlock__globalTorque_read $end
$var event 1 !60 mainBlock__globalTorque_write $end
$var event 1 !61 mainBlock__pedalPositionOut_write $end
$var event 1 !62 mainBlock__pedalPosition_read $end
$var event 1 !63 mainBlock__pedalPosition_write $end
$var event 1 !64 mainBlock__requestedTorq_write $end
$var event 1 !65 mainBlock__torqFrontLeftWheel_write $end
$upscope $end
$enddefinitions $end

#0
1!20
0!35
0!10
0!60
0!29
0!13
0!44
0!52
0!4
0!63
0!8
0!9
0!7
0!5
0!34
0!16
0!17
0!65
0!61
0!43
0!54
0!2
0!62
0!14
0!1
1!3
0!12
0!6
0!55
0!22
1!49
0!64
0!50
0!28
0!15
0!51
0!18
0!59
0!11
0!23
0!19
0!47
0!56
0!58
0!30
0!42
0!53
0!46
0!27
0!36
0!21
0!40
0!45
0!32
0!31
0!57
0!26
0!38
0!24
0!41
0!37
0!25
0!39
0!33
0!48
#2
0!1
0!2
0!3
0!4
0!5
0!6
0!7
0!8
0!9
0!10
0!11
0!12
0!13
0!14
0!15
0!16
0!17
0!18
0!19
0!20
0!21
0!22
0!23
0!24
0!25
0!26
0!27
0!28
0!29
0!30
0!31
0!32
0!33
0!34
0!35
0!36
0!37
0!38
0!39
0!40
0!41
0!42
0!43
0!44
0!45
0!46
0!47
0!48
0!49
0!50
0!51
0!52
0!53
0!54
0!55
0!56
0!57
0!58
0!59
0!60
0!61
0!62
0!63
0!64
0!65
#10
0!20
0!35
0!10
0!60
0!29
0!13
0!44
1!52
1!4
0!63
0!8
0!9
0!7
0!5
0!34
0!16
1!17
0!65
0!61
0!43
0!54
1!2
0!62
0!14
0!1
0!3
0!12
0!6
0!55
1!22
0!49
0!64
1!50
0!28
0!15
0!51
0!18
0!59
1!11
0!23
0!19
0!47
0!56
0!58
0!30
0!42
0!53
0!46
0!27
0!36
0!21
0!40
0!45
0!32
0!31
0!57
1!26
0!38
1!24
0!41
0!37
1!25
0!39
0!33
0!48
#12
0!1
0!2
0!3
0!4
0!5
0!6
0!7
0!8
0!9
0!10
0!11
0!12
0!13
0!14
0!15
0!16
0!17
0!18
0!19
0!20
0!21
0!22
0!23
0!24
0!25
0!26
0!27
0!28
0!29
0!30
0!31
0!32
0!33
0!34
0!35
0!36
0!37
0!38
0!39
0!40
0!41
0!42
0!43
0!44
0!45
0!46
0!47
0!48
0!49
0!50
0!51
0!52
0!53
0!54
0!55
0!56
0!57
0!58
0!59
0!60
0!61
0!62
0!63
0!64
0!65
#20
1!20
0!35
0!10
0!60
0!29
0!13
0!44
0!52
0!4
1!63
0!8
0!9
0!7
0!5
0!34
0!16
0!17
0!65
1!61
0!43
0!54
0!2
0!62
0!14
0!1
1!3
0!12
0!6
0!55
0!22
1!49
0!64
0!50
0!28
0!15
0!51
0!18
0!59
0!11
1!23
0!19
0!47
0!56
0!58
0!30
0!42
0!53
0!46
0!27
0!36
0!21
0!40
0!45
0!32
0!31
0!57
0!26
0!38
0!24
0!41
0!37
0!25
0!39
0!33
1!48
#22
0!1
0!2
0!3
0!4
0!5
0!6
0!7
0!8
0!9
0!10
0!11
0!12
0!13
0!14
0!15
0!16
0!17
0!18
0!19
0!20
0!21
0!22
0!23
0!24
0!25
0!26
0!27
0!28
0!29
0!30
0!31
0!32
0!33
0!34
0!35
0!36
0!37
0!38
0!39
0!40
0!41
0!42
0!43
0!44
0!45
0!46
0!47
0!48
0!49
0!50
0!51
0!52
0!53
0!54
0!55
0!56
0!57
0!58
0!59
0!60
0!61
0!62
0!63
0!64
0!65
#30
0!20
0!35
0!10
0!60
0!29
0!13
0!44
1!52
1!4
0!63
0!8
0!9
0!7
1!5
0!34
0!16
1!17
0!65
0!61
0!43
0!54
1!2
1!62
0!14
0!1
0!3
0!12
0!6
0!55
1!22
0!49
0!64
1!50
1!28
0!15
0!51
0!18
0!59
1!11
0!23
0!19
0!47
0!56
0!58
1!30
0!42
0!53
0!46
0!27
0!36
1!21
0!40
0!45
1!32
1!31
0!57
1!26
0!38
1!24
0!41
0!37
1!25
0!39
0!33
0!48
#32
0!1
0!2
0!3
0!4
0!5
0!6
0!7
0!8
0!9
0!10
0!11
0!12
0!13
0!14
0!15
0!16
0!17
0!18
0!19
0!20
0!21
0!22
0!23
0!24
0!25
0!26
0!27
0!28
0!29
0!30
0!31
0!32
0!33
0!34
0!35
0!36
0!37
0!38
0!39
0!40
0!41
0!42
0!43
0!44
0!45
0!46
0!47
0!48
0!49
0!50
0!51
0!52
0!53
0!54
0!55
0!56
0!57
0!58
0!59
0!60
0!61
0!62
0!63
0!64
0!65
#40
1!20
0!35
0!10
1!60
1!29
0!13
0!44
0!52
0!4
1!63
0!8
0!9
0!7
0!5
0!34
0!16
0!17
0!65
1!61
0!43
0!54
0!2
0!62
0!14
0!1
1!3
0!12
0!6
0!55
0!22
1!49
1!64
0!50
0!28
0!15
0!51
0!18
0!59
0!11
1!23
0!19
0!47
0!56
0!58
0!30
0!42
0!53
0!46
0!27
0!36
0!21
0!40
0!45
0!32
0!31
0!57
0!26
0!38
0!24
0!41
0!37
0!25
0!39
0!33
1!48
#42
0!1
0!2
0!3
0!4
0!5
0!6
0!7
0!8
0!9
0!10
0!11
0!12
0!13
0!14
0!15
0!16
0!17
0!18
0!19
0!20
0!21
0!22
0!23
0!24
0!25
0!26
0!27
0!28
0!29
0!30
0!31
0!32
0!33
0!34
0!35
0!36
0!37
0!38
0!39
0!40
0!41
0!42
0!43
0!44
0!45
0!46
0!47
0!48
0!49
0!50
0!51
0!52
0!53
0!54
0!55
0!56
0!57
0!58
0!59
0!60
0!61
0!62
0!63
0!64
0!65
#50
0!20
0!35
0!10
0!60
0!29
0!13
0!44
0!52
1!4
0!63
0!8
0!9
0!7
1!5
0!34
0!16
0!17
0!65
0!61
0!43
1!54
1!2
1!62
0!14
0!1
0!3
0!12
0!6
0!55
1!22
0!49
0!64
0!50
1!28
0!15
1!51
1!18
1!59
0!11
0!23
0!19
0!47
1!56
1!58
1!30
0!42
0!53
0!46
1!27
0!36
1!21
0!40
0!45
1!32
1!31
1!57
1!26
0!38
1!24
0!41
0!37
1!25
0!39
0!33
0!48
